[
  {
    "name": "Tim & Jeanne's Dining Commons",
    "description": "Serving continuous dining throughout the day! Offerings include all you care to eat Tex-Mex, Mediterranean, Comfort meals, stir fry, salad bar, allergen-free fare, and more.",
    "url": "http://www.westfield.ma.edu/diningservices/foodpro.net/shortmenu.aspx?sName=Westfield+State+Dining+Services&locationNum=01&locationName=Tim+%26+Jeanne%27s+Dining+Commons&naFlag=1",
    "menuCollection": {
      "dayMenus": {
        "1/26/2020": {
          "url": "http://www.westfield.ma.edu/diningservices/foodpro.net/shortmenu.aspx?sName=Westfield+State+Dining+Services&locationNum=01&locationName=Tim+%26+Jeanne%27s+Dining+Commons&naFlag=1&WeeksMenus=This+Week%27s+Menus&myaction=read&dtdate=1%2f26%2f2020",
          "meals": {
            "Breakfast": {
              "categories": {
                "Breakfast Pastries": [
                  "Cinnamon BunsÂ ",
                  "Mini Raspberry CroissantsÂ "
                ],
                "Breakfast Entrees": [
                  "Chicken SausageÂ ",
                  "GritsÂ ",
                  "Hard Boiled EggsÂ ",
                  "Home FriesÂ ",
                  "Hot OatmealÂ ",
                  "Omelet BarÂ ",
                  "PancakesÂ ",
                  "Scrambled EggsÂ "
                ]
              }
            },
            "Dinner": {
              "categories": {
                "Clean Eats": [
                  "Baked Chicken with Banana Peppers and TomatoÂ ",
                  "Broccoli with GarlicÂ ",
                  "Chicken SoupÂ ",
                  "Jasmine RiceÂ ",
                  "Oven Roasted Red PotatoesÂ ",
                  "Quinoa Stuffed Portabella MushroomsÂ ",
                  "Roasted Butternut SquashÂ "
                ],
                "Chef's Table": [
                  "Grilled New York Steak with Soy Mustard GlazeÂ "
                ],
                "Pasta Bar": [
                  "Alfredo SauceÂ ",
                  "Marinara SauceÂ ",
                  "Meat SauceÂ ",
                  "Quinoa Mac & CheeseÂ "
                ],
                "Desserts": [
                  "Fudge Drop BrowniesÂ ",
                  "Hummingbird CakeÂ "
                ],
                "Sides": [
                  "Jasmine RiceÂ ",
                  "Local GreensÂ ",
                  "Steamed Carrots with Thyme & ButterÂ O"
                ],
                "Breads": [
                  "Jalapeno Parmesan BreadÂ "
                ]
              }
            },
            "Late Night": {
              "categories": {
                "Ice Cream Bar": [
                  "Chocolate Frozen YogurtÂ ",
                  "Chocolate SprinklesÂ ",
                  "Crushed M&M'sÂ ",
                  "Ice Cream SundaesÂ ",
                  "Madagascar Vanilla Frozen YogurtÂ ",
                  "Oreo Crumb ToppingÂ ",
                  "Rainbow SprinklesÂ "
                ]
              }
            },
            "Lunch": {
              "categories": {
                "Clean Eats": [
                  "Baked Sweet Potato CasseroleÂ ",
                  "Brown RiceÂ ",
                  "Chicken SoupÂ ",
                  "Local GreensÂ ",
                  "Southwestern CornÂ "
                ],
                "Brunch": [
                  "Carved Ham with PineappleÂ ",
                  "Chicken SausageÂ ",
                  "Home FriesÂ ",
                  "PancakesÂ ",
                  "Scrambled EggsÂ "
                ],
                "Composed Salads": [
                  "Italian Farro SaladÂ "
                ],
                "Pasta Bar": [
                  "Alfredo SauceÂ ",
                  "Marinara SauceÂ ",
                  "Meat SauceÂ ",
                  "Stuffed Shells in SauceÂ "
                ],
                "Desserts": [
                  "Blueberry Coconut MacaroonsÂ ",
                  "Fudge Drop BrowniesÂ "
                ],
                "Sides": [
                  "Broccoli with GarlicÂ ",
                  "Herbed Zucchini & Summer SquashÂ ",
                  "Southern Cheese GritsÂ "
                ],
                "Breads": [
                  "Jalapeno Parmesan BreadÂ "
                ]
              }
            }
          }
        },
        "1/28/2020": {
          "url": "http://www.westfield.ma.edu/diningservices/foodpro.net/shortmenu.aspx?sName=Westfield+State+Dining+Services&locationNum=01&locationName=Tim+%26+Jeanne%27s+Dining+Commons&naFlag=1&WeeksMenus=This+Week%27s+Menus&myaction=read&dtdate=1%2f28%2f2020",
          "meals": {
            "Breakfast": {
              "categories": {
                "Breakfast Pastries": [
                  "Apple Cider Cinnamon MuffinÂ ",
                  "Blueberry Sour Cream Coffee CakeÂ "
                ],
                "Breakfast Entrees": [
                  "Chicken SausageÂ ",
                  "GritsÂ ",
                  "Hard Boiled EggsÂ ",
                  "Hot OatmealÂ ",
                  "Omelet BarÂ ",
                  "PancakesÂ ",
                  "Scrambled EggsÂ ",
                  "Shredded Hash BrownsÂ "
                ],
                "Action Station": [
                  "Apple and Green Grape SmoothieÂ ",
                  "Multiseed Rye BreadÂ "
                ]
              }
            },
            "Dinner": {
              "categories": {
                "Specialty": [
                  "Taco BarÂ "
                ],
                "Clean Eats": [
                  "Curried Roasted CauliflowerÂ ",
                  "Herbed Vegetable and Bean SoupÂ ",
                  "Local GreensÂ ",
                  "Mushroom & Vegetable EnchiladasÂ ",
                  "Taco BarÂ "
                ],
                "Chef's Table": [
                  "Fresh Fish with Tomato Olive RelishÂ "
                ],
                "Pasta Bar": [
                  "Alfredo SauceÂ ",
                  "Beef MeatballsÂ ",
                  "Garlic KnotsÂ ",
                  "Marinara SauceÂ ",
                  "Meat SauceÂ "
                ],
                "Desserts": [
                  "Grasshopper BrowniesÂ ",
                  "Pumpkin BarsÂ "
                ],
                "Sides": [
                  "Corn with Red PeppersÂ ",
                  "Oven Roasted Red Potatoes with RosemaryÂ ",
                  "Roasted ZucchiniÂ ",
                  "Szechuan BroccoliÂ "
                ],
                "Breads": [
                  "Cinnamon Raisin BreadÂ "
                ]
              }
            },
            "Late Night": {
              "categories": {
                "Ice Cream Bar": [
                  "Chocolate Frozen YogurtÂ ",
                  "Chocolate SprinklesÂ ",
                  "Crushed M&M'sÂ ",
                  "Madagascar Vanilla Frozen YogurtÂ ",
                  "Oreo Crumb ToppingÂ ",
                  "Rainbow SprinklesÂ "
                ],
                "Late Night": [
                  "Mashed Potato BowlÂ "
                ]
              }
            },
            "Lunch": {
              "categories": {
                "Specialty": [
                  "Bok Choy with MushroomsÂ ",
                  "Spring Egg RollsÂ ",
                  "Sweet & Sour ChickenÂ ",
                  "Vegetable Lo MeinÂ "
                ],
                "Clean Eats": [
                  "Broccoli with GarlicÂ ",
                  "Herbed Vegetable and Bean SoupÂ ",
                  "Jasmine RiceÂ ",
                  "Quinoa BitesÂ ",
                  "Southwestern CornÂ "
                ],
                "Chef's Table": [
                  "Margherita Eggplant with PestoÂ "
                ],
                "Composed Salads": [
                  "Soba Noodle SaladÂ "
                ],
                "Pasta Bar": [
                  "Alfredo SauceÂ ",
                  "Beef MeatballsÂ ",
                  "Garlic KnotsÂ ",
                  "Marinara SauceÂ ",
                  "Meat SauceÂ "
                ],
                "Action Station": [
                  "Vegetable Cobb SaladÂ "
                ],
                "Desserts": [
                  "Apple CakeÂ ",
                  "M&M BarÂ "
                ],
                "Sides": [
                  "Corn with Red PeppersÂ ",
                  "Green BeansÂ ",
                  "Spinach with GarlicÂ ",
                  "Tomato RiceÂ "
                ],
                "Breads": [
                  "Cinnamon Raisin BreadÂ "
                ]
              }
            }
          }
        },
        "1/30/2020": {
          "url": "http://www.westfield.ma.edu/diningservices/foodpro.net/shortmenu.aspx?sName=Westfield+State+Dining+Services&locationNum=01&locationName=Tim+%26+Jeanne%27s+Dining+Commons&naFlag=1&WeeksMenus=This+Week%27s+Menus&myaction=read&dtdate=1%2f30%2f2020",
          "meals": {
            "Breakfast": {
              "categories": {
                "Breakfast Pastries": [
                  "Jalapeno & Cheddar Corn MuffinsÂ ",
                  "Pancake BreadÂ "
                ],
                "Breakfast Entrees": [
                  "Bacon SlicesÂ ",
                  "GritsÂ ",
                  "Hard Boiled EggsÂ ",
                  "Hot OatmealÂ ",
                  "Omelet BarÂ ",
                  "PancakesÂ ",
                  "Scrambled EggsÂ ",
                  "Shredded Hash BrownsÂ "
                ],
                "Action Station": [
                  "Anadama BreadÂ "
                ]
              }
            },
            "Dinner": {
              "categories": {
                "Specialty": [
                  "Beef WellingtonÂ ",
                  "Honey Glazed CarrotsÂ "
                ],
                "Clean Eats": [
                  "Baked Risotto Milanese with Butternut SquashÂ ",
                  "Broccoli with GarlicÂ ",
                  "Chicken a la KingÂ ",
                  "QuinoaÂ ",
                  "Summer Squash with Red PeppersÂ "
                ],
                "Appetizers": [
                  "BLT Tea SandwichesÂ ",
                  "Chicken SaladÂ ",
                  "Cotton Candy MocktailÂ ",
                  "Cucumber and Dill Tea SandwichesÂ ",
                  "Deviled EggsÂ ",
                  "Ham & Brie Tea SandwichesÂ ",
                  "Shrimp CocktailÂ ",
                  "Stuffed Mushrooms with Artichokes & SpinachÂ "
                ],
                "Chef's Table": [
                  "Linguini with White Clam SauceÂ "
                ],
                "Soups": [
                  "Winter Roots BisqueÂ "
                ],
                "Pasta Bar": [
                  "Alfredo SauceÂ ",
                  "Five Cheese RavioliÂ ",
                  "Marinara SauceÂ ",
                  "Meat SauceÂ "
                ],
                "Desserts": [
                  "Cream PuffsÂ ",
                  "Lemon BarsÂ "
                ],
                "Sides": [
                  "Green Beans With BaconÂ ",
                  "Roasted CauliflowerÂ ",
                  "Roasted Red Potatoes with RosemaryÂ ",
                  "Spinach with GarlicÂ "
                ],
                "Breads": [
                  "Pesto BreadÂ "
                ]
              }
            },
            "Late Night": {
              "categories": {
                "Ice Cream Bar": [
                  "Chocolate Frozen YogurtÂ ",
                  "Chocolate SprinklesÂ ",
                  "Crushed M&M'sÂ ",
                  "Madagascar Vanilla Frozen YogurtÂ ",
                  "Oreo Crumb ToppingÂ ",
                  "Rainbow SprinklesÂ "
                ]
              }
            },
            "Lunch": {
              "categories": {
                "Specialty": [
                  "Kung Pao ShrimpÂ ",
                  "Spring Egg RollsÂ ",
                  "Stir Fried Veggies with Baby CornÂ ",
                  "Vegetable Lo MeinÂ "
                ],
                "Clean Eats": [
                  "Brown RiceÂ ",
                  "Chicken Broccoli ChowderÂ ",
                  "Eggplant ParmesanÂ ",
                  "Green BeansÂ ",
                  "Oven Roasted Red PotatoesÂ ",
                  "Spinach with GarlicÂ "
                ],
                "Chef's Table": [
                  "American Chop SueyÂ "
                ],
                "Composed Salads": [
                  "Harvest of the Month Feature: Watermelon Oat SaladÂ "
                ],
                "Pasta Bar": [
                  "Alfredo SauceÂ ",
                  "Five Cheese RavioliÂ ",
                  "Marinara SauceÂ ",
                  "Meat SauceÂ ",
                  "Red Pepper PestoÂ "
                ],
                "Action Station": [
                  "Caesar SaladÂ "
                ],
                "Desserts": [
                  "Oat S'mores BarÂ ",
                  "Rice Krispie TreatsÂ "
                ],
                "Sides": [
                  "Broccoli with GarlicÂ ",
                  "Corn with Red PeppersÂ ",
                  "Local GreensÂ ",
                  "Squash with Sundried TomatoesÂ "
                ],
                "Breads": [
                  "Pesto BreadÂ "
                ]
              }
            }
          }
        },
        "1/31/2020": {
          "url": "http://www.westfield.ma.edu/diningservices/foodpro.net/shortmenu.aspx?sName=Westfield+State+Dining+Services&locationNum=01&locationName=Tim+%26+Jeanne%27s+Dining+Commons&naFlag=1&WeeksMenus=This+Week%27s+Menus&myaction=read&dtdate=1%2f31%2f2020",
          "meals": {
            "Breakfast": {
              "categories": {
                "Breakfast Pastries": [
                  "Cranberry Orange MuffinsÂ ",
                  "Honey Banana Breakfast CakeÂ "
                ],
                "Breakfast Entrees": [
                  "French ToastÂ ",
                  "GritsÂ ",
                  "Hard Boiled EggsÂ ",
                  "Home FriesÂ ",
                  "Hot OatmealÂ ",
                  "Omelet BarÂ ",
                  "Pork Sausage LinksÂ ",
                  "Scrambled EggsÂ "
                ],
                "Action Station": [
                  "Pesto BreadÂ "
                ]
              }
            },
            "Dinner": {
              "categories": {
                "Specialty": [
                  "Chicken GyrosÂ "
                ],
                "Clean Eats": [
                  "Black Bean SoupÂ ",
                  "Brown RiceÂ ",
                  "Herb Roasted ChickenÂ ",
                  "Roasted Spiced Butternut SquashÂ ",
                  "Sweet Potato WedgesÂ ",
                  "Vegetarian GumboÂ ",
                  "White Beans with KaleÂ "
                ],
                "Chef's Table": [
                  "Bacon-Wrapped Pork LoinÂ "
                ],
                "Pasta Bar": [
                  "Alfredo SauceÂ ",
                  "Cheese Stuffed RigatoniÂ ",
                  "Marinara SauceÂ ",
                  "Meat SauceÂ ",
                  "Red Pepper PestoÂ "
                ],
                "Desserts": [
                  "Chocolate Chip CookiesÂ ",
                  "Strawberry ShortcakeÂ "
                ],
                "Sides": [
                  "Creole Green BeansÂ ",
                  "Dirty Whipped Red PotatoesÂ ",
                  "Honey Glazed CarrotsÂ ",
                  "Local GreensÂ "
                ],
                "Breads": [
                  "ChallahÂ "
                ]
              }
            },
            "Lunch": {
              "categories": {
                "Specialty": [
                  "Ma Po Tofu with BeefÂ ",
                  "Szechuan BroccoliÂ ",
                  "Vegetable DumplingsÂ ",
                  "Vegetable Fried RiceÂ "
                ],
                "Clean Eats": [
                  "Black Bean SoupÂ ",
                  "Jasmine RiceÂ ",
                  "Local GreensÂ ",
                  "Maple Glazed CarrotsÂ ",
                  "Orange Mango SalsaÂ ",
                  "Quinoa Falafel CakesÂ "
                ],
                "Chef's Table": [
                  "Breaded FishÂ "
                ],
                "Composed Salads": [
                  "Asian Noodle SaladÂ "
                ],
                "Pasta Bar": [
                  "Alfredo SauceÂ ",
                  "Baked Chicken & Broccoli AlfredoÂ ",
                  "Marinara SauceÂ ",
                  "Meat SauceÂ "
                ],
                "Action Station": [
                  "Mexican Rice SaladÂ "
                ],
                "Desserts": [
                  "Caramel Snickerdoodle BarÂ ",
                  "Chocolate Chip CookiesÂ "
                ],
                "Sides": [
                  "6\" Flour TortillaÂ ",
                  "Roasted Honey Mustard CarrotsÂ ",
                  "Roasted Potato WedgesÂ ",
                  "Spicy Cole SlawÂ "
                ],
                "Breads": [
                  "ChallahÂ "
                ]
              }
            }
          }
        },
        "1/27/2020": {
          "url": "http://www.westfield.ma.edu/diningservices/foodpro.net/shortmenu.aspx?sName=Westfield+State+Dining+Services&locationNum=01&locationName=Tim+%26+Jeanne%27s+Dining+Commons&naFlag=1&WeeksMenus=This+Week%27s+Menus&myaction=read&dtdate=1%2f27%2f2020",
          "meals": {
            "Breakfast": {
              "categories": {
                "Breakfast Pastries": [
                  "Banana Breakfast BreadÂ ",
                  "Raspberry Chocolate Chip MuffinsÂ "
                ],
                "Breakfast Entrees": [
                  "Bacon SlicesÂ ",
                  "French ToastÂ ",
                  "GritsÂ ",
                  "Hard Boiled EggsÂ ",
                  "Hot OatmealÂ ",
                  "Omelet BarÂ ",
                  "Scrambled EggsÂ ",
                  "Sweet Potato Home FriesÂ "
                ],
                "Action Station": [
                  "Jalapeno Parmesan BreadÂ "
                ]
              }
            },
            "Dinner": {
              "categories": {
                "Specialty": [
                  "Risotto BarÂ "
                ],
                "Clean Eats": [
                  "Brown RiceÂ ",
                  "Carved Southwestern Pork LoinÂ ",
                  "Maple Glazed CarrotsÂ ",
                  "Roasted Cherry TomatoesÂ ",
                  "Roasted Red Potatoes w/RosemaryÂ ",
                  "Tomato SoupÂ ",
                  "Zucchini Burrito BoatsÂ "
                ],
                "Chef's Table": [
                  "Shakshuka (Eggs Poached with Spicy Tomatoes)Â "
                ],
                "Pasta Bar": [
                  "Alfredo SauceÂ ",
                  "Five Cheese RavioliÂ ",
                  "Marinara SauceÂ ",
                  "Meat SauceÂ ",
                  "Red Pepper PestoÂ "
                ],
                "Desserts": [
                  "Fresh Cranberry BarsÂ ",
                  "Marble Cake with Chocolate IcingÂ "
                ],
                "Sides": [
                  "CauliflowerÂ ",
                  "Roasted Spiced Butternut SquashÂ ",
                  "Spanish RiceÂ ",
                  "Spinach with MushroomsÂ "
                ],
                "Breads": [
                  "Multiseed Rye BreadÂ "
                ]
              }
            },
            "Late Night": {
              "categories": {
                "Ice Cream Bar": [
                  "Chocolate Frozen YogurtÂ ",
                  "Chocolate SprinklesÂ ",
                  "Crushed M&M'sÂ ",
                  "Madagascar Vanilla Frozen YogurtÂ ",
                  "Oreo Crumb ToppingÂ ",
                  "Rainbow SprinklesÂ "
                ],
                "Late Night": [
                  "Hot Dog BarÂ "
                ]
              }
            },
            "Lunch": {
              "categories": {
                "Specialty": [
                  "Carrot and Celery Stir FryÂ ",
                  "Fusion Beef Stir FryÂ ",
                  "Spring Egg RollsÂ ",
                  "Vegetable Fried RiceÂ "
                ],
                "Clean Eats": [
                  "Baked Eggplant and TomatoesÂ ",
                  "Baked ZitiÂ ",
                  "QuinoaÂ ",
                  "Summer Squash with Red PeppersÂ ",
                  "Tomato SoupÂ "
                ],
                "Chef's Table": [
                  "Celery SticksÂ ",
                  "Plain Chicken WingsÂ "
                ],
                "Composed Salads": [
                  "Lentil, Feta & Olive Pasta SaladÂ "
                ],
                "Pasta Bar": [
                  "Alfredo SauceÂ ",
                  "Marinara SauceÂ ",
                  "Meat SauceÂ ",
                  "Three Cheese Pasta BakeÂ "
                ],
                "Action Station": [
                  "Lo Mein SaladÂ "
                ],
                "Desserts": [
                  "Butterscotch Chip CookiesÂ ",
                  "Oreo Coconut BarÂ "
                ],
                "Sides": [
                  "Buffalo CauliflowerÂ ",
                  "Carrot SaladÂ ",
                  "Garlic Green BeansÂ ",
                  "Sweet Potato WedgesÂ "
                ],
                "Breads": [
                  "Multiseed Rye BreadÂ "
                ]
              }
            }
          }
        },
        "2/2/2020": {
          "url": "http://www.westfield.ma.edu/diningservices/foodpro.net/shortmenu.aspx?sName=Westfield+State+Dining+Services&locationNum=01&locationName=Tim+%26+Jeanne%27s+Dining+Commons&naFlag=1&WeeksMenus=This+Week%27s+Menus&myaction=read&dtdate=2%2f2%2f2020",
          "meals": {
            "Breakfast": {
              "categories": {
                "Breakfast Pastries": [
                  "Cinnamon BunsÂ ",
                  "Mini Apple CroissantÂ "
                ],
                "Breakfast Entrees": [
                  "Chicken SausageÂ ",
                  "GritsÂ ",
                  "Hard Boiled EggsÂ ",
                  "Home FriesÂ ",
                  "Hot OatmealÂ ",
                  "Omelet BarÂ ",
                  "PancakesÂ ",
                  "Scrambled EggsÂ "
                ]
              }
            },
            "Dinner": {
              "categories": {
                "Clean Eats": [
                  "Broccoli with GarlicÂ ",
                  "Buffalo Cauliflower TacosÂ ",
                  "Jasmine RiceÂ ",
                  "Oven Roasted Red PotatoesÂ ",
                  "Roasted Butternut SquashÂ ",
                  "Tuscan Chicken StewÂ "
                ],
                "Chef's Table": [
                  "Au Poivre BeefÂ "
                ],
                "Pasta Bar": [
                  "Alfredo SauceÂ ",
                  "Baked Spaghetti (Fideos)Â ",
                  "Marinara SauceÂ ",
                  "Meat SauceÂ "
                ],
                "Desserts": [
                  "Cheesecake BrowniesÂ ",
                  "Sugar CookiesÂ "
                ],
                "Sides": [
                  "Honey Carrots with ParsleyÂ ",
                  "Jasmine RiceÂ ",
                  "Mashed Sweet PotatoesÂ ",
                  "Spinach with GarlicÂ "
                ],
                "Breads": [
                  "Semolina BreadÂ "
                ]
              }
            },
            "Late Night": {
              "categories": {
                "Ice Cream Bar": [
                  "Chocolate Frozen YogurtÂ ",
                  "Chocolate SprinklesÂ ",
                  "Crushed M&M'sÂ ",
                  "Ice Cream SundaesÂ ",
                  "Madagascar Vanilla Frozen YogurtÂ ",
                  "Oreo Crumb ToppingÂ ",
                  "Rainbow SprinklesÂ "
                ]
              }
            },
            "Lunch": {
              "categories": {
                "Clean Eats": [
                  "Baked Stuffed Zucchini with ChickpeasÂ ",
                  "Brown RiceÂ ",
                  "Chicken SoupÂ ",
                  "Local GreensÂ ",
                  "Oven Roasted Red PotatoesÂ ",
                  "Southwestern CornÂ "
                ],
                "Brunch": [
                  "Carved PastramiÂ ",
                  "Chicken SausageÂ ",
                  "PancakesÂ ",
                  "Scrambled EggsÂ "
                ],
                "Composed Salads": [
                  "Three Bean SaladÂ "
                ],
                "Pasta Bar": [
                  "Alfredo SauceÂ ",
                  "Basil Pesto SauceÂ ",
                  "Cheese TortelliniÂ ",
                  "Marinara SauceÂ ",
                  "Meat SauceÂ "
                ],
                "Desserts": [
                  "Oreo Coconut BarÂ ",
                  "Sugar CookiesÂ "
                ],
                "Sides": [
                  "Broccoli with GarlicÂ ",
                  "Cajun Red Beans & RiceÂ ",
                  "Home FriesÂ ",
                  "Zucchini, Corn & PeppersÂ "
                ],
                "Breads": [
                  "Semolina BreadÂ "
                ]
              }
            }
          }
        },
        "1/24/2020": {
          "url": "http://www.westfield.ma.edu/diningservices/foodpro.net/shortmenu.aspx?sName=Westfield+State+Dining+Services&locationNum=01&locationName=Tim+%26+Jeanne%27s+Dining+Commons&naFlag=1&WeeksMenus=This+Week%27s+Menus&myaction=read&dtdate=1%2f24%2f2020",
          "meals": {
            "Breakfast": {
              "categories": {
                "Breakfast Pastries": [
                  "Blueberry Buttermilk MuffinsÂ ",
                  "Pumpkin Cranberry BreadÂ "
                ],
                "Breakfast Entrees": [
                  "French ToastÂ ",
                  "GritsÂ ",
                  "Hard Boiled EggsÂ ",
                  "Home FriesÂ ",
                  "Hot OatmealÂ ",
                  "Omelet BarÂ ",
                  "Pork Sausage LinksÂ ",
                  "Scrambled EggsÂ "
                ],
                "Action Station": [
                  "Quinoa BreadÂ "
                ]
              }
            },
            "Dinner": {
              "categories": {
                "Specialty": [
                  "Chicken GyrosÂ "
                ],
                "Clean Eats": [
                  "Black Bean SoupÂ ",
                  "Brown RiceÂ ",
                  "Herb Roasted ChickenÂ ",
                  "Sliced CarrotsÂ ",
                  "Stuffed Sweet PotatoÂ ",
                  "Summer SquashÂ ",
                  "White Beans with KaleÂ "
                ],
                "Chef's Table": [
                  "BBQ Pork ChopsÂ "
                ],
                "Pasta Bar": [
                  "Alfredo SauceÂ ",
                  "Cheese Stuffed RigatoniÂ ",
                  "Marinara SauceÂ ",
                  "Meat SauceÂ ",
                  "Red Pepper PestoÂ "
                ],
                "Desserts": [
                  "Chocolate Chip CookiesÂ ",
                  "Yellow Cake with Chocolate FrostingÂ "
                ],
                "Sides": [
                  "Green Beans with Caramelized ShallotsÂ ",
                  "Maple Butternut SquashÂ ",
                  "Quinoa With SpinachÂ ",
                  "White Beans with KaleÂ "
                ],
                "Breads": [
                  "ChallahÂ "
                ]
              }
            },
            "Lunch": {
              "categories": {
                "Specialty": [
                  "Kung Pao Chicken with Peanuts Available on the SideÂ ",
                  "Szechuan BroccoliÂ ",
                  "Vegetable DumplingsÂ ",
                  "Vegetable Fried RiceÂ "
                ],
                "Clean Eats": [
                  "Black Bean SoupÂ ",
                  "Greek Stuffed TomatoesÂ ",
                  "Local GreensÂ ",
                  "Maple Glazed CarrotsÂ ",
                  "QuinoaÂ "
                ],
                "Chef's Table": [
                  "Baked Fish with Roasted Potatoes and TomatoesÂ "
                ],
                "Composed Salads": [
                  "Bulgur Salad with ApricotsÂ "
                ],
                "Pasta Bar": [
                  "Alfredo SauceÂ ",
                  "Chicken Bacon Ranch PastaÂ ",
                  "Marinara SauceÂ ",
                  "Meat SauceÂ "
                ],
                "Action Station": [
                  "Southwest SaladÂ "
                ],
                "Desserts": [
                  "Chocolate Chip CookiesÂ ",
                  "Pumpkin Spice BlondiesÂ "
                ],
                "Sides": [
                  "Brown Rice PilafÂ ",
                  "Carrots with ButterÂ ",
                  "Sage Butter Roasted Delicata SquashÂ ",
                  "Sauteed KaleÂ "
                ],
                "Breads": [
                  "ChallahÂ "
                ]
              }
            }
          }
        },
        "1/25/2020": {
          "url": "http://www.westfield.ma.edu/diningservices/foodpro.net/shortmenu.aspx?sName=Westfield+State+Dining+Services&locationNum=01&locationName=Tim+%26+Jeanne%27s+Dining+Commons&naFlag=1&WeeksMenus=This+Week%27s+Menus&myaction=read&dtdate=1%2f25%2f2020",
          "meals": {
            "Breakfast": {
              "categories": {
                "Breakfast Pastries": [
                  "Banana Chocolate Chip MuffinsÂ ",
                  "Mini Cheese CroissantÂ "
                ],
                "Breakfast Entrees": [
                  "Bacon SlicesÂ ",
                  "GritsÂ ",
                  "Hard Boiled EggsÂ ",
                  "Hot OatmealÂ ",
                  "Omelet BarÂ ",
                  "PancakesÂ ",
                  "Scrambled EggsÂ ",
                  "Shredded Hash BrownsÂ "
                ]
              }
            },
            "Dinner": {
              "categories": {
                "Clean Eats": [
                  "BBQ Chickpea & Cauliflower Flatbreads with Avocado MashÂ ",
                  "Gluten Free Cheeseburger MacÂ ",
                  "Greek Lentil Soup with KaleÂ ",
                  "Jasmine RiceÂ ",
                  "Oven Roasted Red PotatoesÂ ",
                  "Roasted Cauliflower with GarlicÂ ",
                  "Zucchini & CornÂ "
                ],
                "Chef's Table": [
                  "Chicken BiryaniÂ "
                ],
                "Pasta Bar": [
                  "Alfredo SauceÂ ",
                  "Chicken Cordon Bleu PastaÂ ",
                  "Marinara SauceÂ ",
                  "Meat SauceÂ "
                ],
                "Desserts": [
                  "Lemon Cake with Buttermilk GlazeÂ ",
                  "Triple Chocolate CookieÂ "
                ],
                "Sides": [
                  "Broccoli with GarlicÂ ",
                  "Dal (Lentils)Â O",
                  "Herbed Zucchini & Summer SquashÂ ",
                  "Southwestern CornÂ "
                ],
                "Breads": [
                  "Focaccia BreadÂ "
                ]
              }
            },
            "Lunch": {
              "categories": {
                "Clean Eats": [
                  "Broccoli with GarlicÂ ",
                  "Greek Lentil Soup with KaleÂ ",
                  "Harvest-Stuffed Portobello MushroomsÂ ",
                  "Jasmine RiceÂ ",
                  "Maple Glazed CarrotsÂ ",
                  "Oven Roasted Red PotatoesÂ "
                ],
                "Brunch": [
                  "Bacon SlicesÂ ",
                  "PancakesÂ ",
                  "Salmon w/Dill ButterÂ ",
                  "Scrambled EggsÂ ",
                  "Shredded Hash BrownsÂ "
                ],
                "Composed Salads": [
                  "Apple Cranberry Barley SaladÂ "
                ],
                "Pasta Bar": [
                  "Alfredo SauceÂ ",
                  "Baked ZitiÂ ",
                  "Marinara SauceÂ ",
                  "Meat SauceÂ "
                ],
                "Desserts": [
                  "Key Lime Pie BarÂ ",
                  "Triple Chocolate CookieÂ "
                ],
                "Sides": [
                  "Black Bean QuinoaÂ ",
                  "Brown Butter Roasted CauliflowerÂ ",
                  "Spinach with GarlicÂ "
                ],
                "Breads": [
                  "Focaccia BreadÂ "
                ]
              }
            }
          }
        },
        "1/29/2020": {
          "url": "http://www.westfield.ma.edu/diningservices/foodpro.net/shortmenu.aspx?sName=Westfield+State+Dining+Services&locationNum=01&locationName=Tim+%26+Jeanne%27s+Dining+Commons&naFlag=1&WeeksMenus=This+Week%27s+Menus&myaction=read&dtdate=1%2f29%2f2020",
          "meals": {
            "Breakfast": {
              "categories": {
                "Breakfast Pastries": [
                  "Mini Chocolate CroissantÂ ",
                  "Sour Cream Coffee Cake MuffinsÂ "
                ],
                "Breakfast Entrees": [
                  "French ToastÂ ",
                  "GritsÂ ",
                  "Hard Boiled EggsÂ ",
                  "Home FriesÂ ",
                  "Hot OatmealÂ ",
                  "Omelet BarÂ ",
                  "Pork Sausage LinksÂ ",
                  "Scrambled EggsÂ "
                ],
                "Action Station": [
                  "Cinnamon Raisin BreadÂ "
                ]
              }
            },
            "Dinner": {
              "categories": {
                "Specialty": [
                  "Macaroni & CheeseÂ "
                ],
                "Clean Eats": [
                  "BBQ ChickenÂ ",
                  "Brown RiceÂ ",
                  "Gluten-Free Macaroni and CheeseÂ ",
                  "Green Beans with Balsamic VinegarÂ ",
                  "Spinach with GarlicÂ "
                ],
                "Chef's Table": [
                  "Ma Po Tofu & MushroomsÂ ",
                  "Maple Soy Glazed SalmonÂ "
                ],
                "Pasta Bar": [
                  "Alfredo SauceÂ ",
                  "Marinara SauceÂ ",
                  "Meat SauceÂ ",
                  "Vegetable Lo MeinÂ "
                ],
                "Desserts": [
                  "Chocolate TorteÂ ",
                  "Creamy Rice PuddingÂ "
                ],
                "Sides": [
                  "Bok Choy with MushroomsÂ ",
                  "Carrot and Celery Stir FryÂ ",
                  "Spring RollsÂ ",
                  "Vegetable DumplingsÂ ",
                  "White RiceÂ "
                ],
                "Breads": [
                  "Anadama BreadÂ "
                ]
              }
            },
            "Late Night": {
              "categories": {
                "Ice Cream Bar": [
                  "Chocolate Frozen YogurtÂ ",
                  "Chocolate SprinklesÂ ",
                  "Crushed M&M'sÂ ",
                  "Madagascar Vanilla Frozen YogurtÂ ",
                  "Oreo Crumb ToppingÂ ",
                  "Rainbow SprinklesÂ "
                ],
                "Late Night": [
                  "Macaroni & CheeseÂ "
                ]
              }
            },
            "Lunch": {
              "categories": {
                "Specialty": [
                  "Asian Green BeansÂ ",
                  "Mandarin ChickenÂ ",
                  "Spring Egg RollsÂ ",
                  "Vegetable Fried RiceÂ "
                ],
                "Clean Eats": [
                  "Crispy Cornmeal CauliflowerÂ ",
                  "Herbed Carrot SoupÂ ",
                  "Local GreensÂ ",
                  "Spanish RiceÂ ",
                  "Sweet Potato WedgesÂ "
                ],
                "Chef's Table": [
                  "Fire ChickenÂ "
                ],
                "Composed Salads": [
                  "Wheat Berry Vinaigrette SaladÂ "
                ],
                "Pasta Bar": [
                  "Alfredo SauceÂ ",
                  "Cheesy Cauliflower Farro BakeÂ ",
                  "Marinara SauceÂ ",
                  "Meat SauceÂ "
                ],
                "Action Station": [
                  "Kale and Quinoa Salad with Lemon VinaigretteÂ "
                ],
                "Desserts": [
                  "Chocolate Chip Coconut CakeÂ ",
                  "White Chocolate Cherry BarsÂ "
                ],
                "Sides": [
                  "Broccoli with GarlicÂ ",
                  "Green BeansÂ ",
                  "Maple Glazed CarrotsÂ ",
                  "Roasted Red Potatoes w/RosemaryÂ "
                ],
                "Breads": [
                  "Anadama BreadÂ "
                ]
              }
            }
          }
        },
        "2/1/2020": {
          "url": "http://www.westfield.ma.edu/diningservices/foodpro.net/shortmenu.aspx?sName=Westfield+State+Dining+Services&locationNum=01&locationName=Tim+%26+Jeanne%27s+Dining+Commons&naFlag=1&WeeksMenus=This+Week%27s+Menus&myaction=read&dtdate=2%2f1%2f2020",
          "meals": {
            "Breakfast": {
              "categories": {
                "Breakfast Pastries": [
                  "Banana Blueberry MuffinÂ ",
                  "Mini Butter CroissantÂ "
                ],
                "Breakfast Entrees": [
                  "Bacon SlicesÂ ",
                  "GritsÂ ",
                  "Hard Boiled EggsÂ ",
                  "Hot OatmealÂ ",
                  "Omelet BarÂ ",
                  "PancakesÂ ",
                  "Scrambled EggsÂ ",
                  "Shredded Hash BrownsÂ "
                ]
              }
            },
            "Dinner": {
              "categories": {
                "Clean Eats": [
                  "Baked Stuffed Zucchini with ChickpeasÂ ",
                  "Bombay Beef with Coconut MilkÂ ",
                  "Greek Lentil Soup with KaleÂ ",
                  "Oven Roasted Red PotatoesÂ ",
                  "Roasted Cauliflower with GarlicÂ ",
                  "Zucchini, Corn & PeppersÂ "
                ],
                "Chef's Table": [
                  "Mustard Crusted Pork Loin with Herb SauceÂ "
                ],
                "Pasta Bar": [
                  "Alfredo SauceÂ ",
                  "Marinara SauceÂ ",
                  "Meat SauceÂ ",
                  "Tempeh Pasta BakeÂ "
                ],
                "Desserts": [
                  "Banana Cake With Chocolate GlazeÂ ",
                  "M&M BrownieÂ "
                ],
                "Sides": [
                  "Broccoli with GarlicÂ ",
                  "Butternut Apple GratinÂ ",
                  "Roasted Potato WedgesÂ ",
                  "Summer Squash with Red PeppersÂ "
                ],
                "Breads": [
                  "CornbreadÂ "
                ]
              }
            },
            "Lunch": {
              "categories": {
                "Clean Eats": [
                  "Broccoli with GarlicÂ ",
                  "Greek Lentil Soup with KaleÂ ",
                  "Oven Roasted Red PotatoesÂ ",
                  "QuinoaÂ "
                ],
                "Brunch": [
                  "Bacon SlicesÂ ",
                  "PancakesÂ ",
                  "Roast TurkeyÂ ",
                  "Scrambled EggsÂ ",
                  "Shredded Hash BrownsÂ "
                ],
                "Composed Salads": [
                  "Carrot SaladÂ "
                ],
                "Pasta Bar": [
                  "Alfredo SauceÂ ",
                  "Marinara SauceÂ ",
                  "Meat SauceÂ ",
                  "Sausage Bake in Pink Cream SauceÂ "
                ],
                "Desserts": [
                  "Caramel Apple BarÂ ",
                  "M&M BrownieÂ "
                ],
                "Sides": [
                  "Brown Butter Roasted CauliflowerÂ ",
                  "Local GreensÂ ",
                  "Roasted Brussels SproutsÂ ",
                  "Zucchini, Corn & PeppersÂ "
                ],
                "Breads": [
                  "CornbreadÂ "
                ]
              }
            }
          }
        }
      }
    }
  },
  {
    "name": "Marketplace",
    "description": "Offering fresh made salads and sandwiches, baked goods, fresh local bagels, fair trade organic coffee, nitro brew, cold brew, snacks, and convenience items.",
    "url": "http://www.westfield.ma.edu/diningservices/foodpro.net/shortmenu.aspx?sName=Westfield+State+Dining+Services&locationNum=09&locationName=Marketplace&naFlag=1",
    "menuCollection": {
      "dayMenus": {
        "1/26/2020": {
          "url": "http://www.westfield.ma.edu/diningservices/foodpro.net/shortmenu.aspx?sName=Westfield+State+Dining+Services&locationNum=09&locationName=Marketplace&naFlag=1&WeeksMenus=This+Week%27s+Menus&myaction=read&dtdate=1%2f26%2f2020",
          "meals": {}
        },
        "1/28/2020": {
          "url": "http://www.westfield.ma.edu/diningservices/foodpro.net/shortmenu.aspx?sName=Westfield+State+Dining+Services&locationNum=09&locationName=Marketplace&naFlag=1&WeeksMenus=This+Week%27s+Menus&myaction=read&dtdate=1%2f28%2f2020",
          "meals": {}
        },
        "1/30/2020": {
          "url": "http://www.westfield.ma.edu/diningservices/foodpro.net/shortmenu.aspx?sName=Westfield+State+Dining+Services&locationNum=09&locationName=Marketplace&naFlag=1&WeeksMenus=This+Week%27s+Menus&myaction=read&dtdate=1%2f30%2f2020",
          "meals": {}
        },
        "1/31/2020": {
          "url": "http://www.westfield.ma.edu/diningservices/foodpro.net/shortmenu.aspx?sName=Westfield+State+Dining+Services&locationNum=09&locationName=Marketplace&naFlag=1&WeeksMenus=This+Week%27s+Menus&myaction=read&dtdate=1%2f31%2f2020",
          "meals": {}
        },
        "1/27/2020": {
          "url": "http://www.westfield.ma.edu/diningservices/foodpro.net/shortmenu.aspx?sName=Westfield+State+Dining+Services&locationNum=09&locationName=Marketplace&naFlag=1&WeeksMenus=This+Week%27s+Menus&myaction=read&dtdate=1%2f27%2f2020",
          "meals": {}
        },
        "1/25/2020": {
          "url": "http://www.westfield.ma.edu/diningservices/foodpro.net/shortmenu.aspx?sName=Westfield+State+Dining+Services&locationNum=09&locationName=Marketplace&naFlag=1&WeeksMenus=This+Week%27s+Menus&myaction=read&dtdate=1%2f25%2f2020",
          "meals": {}
        },
        "1/29/2020": {
          "url": "http://www.westfield.ma.edu/diningservices/foodpro.net/shortmenu.aspx?sName=Westfield+State+Dining+Services&locationNum=09&locationName=Marketplace&naFlag=1&WeeksMenus=This+Week%27s+Menus&myaction=read&dtdate=1%2f29%2f2020",
          "meals": {}
        }
      }
    }
  },
  {
    "name": "TJ Bistro",
    "description": "Serving delicious breakfast and lunch options including freshly prepared salads, wraps, Mexican cuisine, sushi, brick oven pizza and Grab & Go meals.",
    "url": "http://www.westfield.ma.edu/diningservices/foodpro.net/shortmenu.aspx?sName=Westfield+State+Dining+Services&locationNum=22&locationName=TJ+Bistro&naFlag=1",
    "menuCollection": {
      "dayMenus": {
        "2/3/2020": {
          "url": "http://www.westfield.ma.edu/diningservices/foodpro.net/shortmenu.aspx?sName=Westfield+State+Dining+Services&locationNum=22&locationName=TJ+Bistro&naFlag=1&WeeksMenus=This+Week%27s+Menus&myaction=read&dtdate=2%2f3%2f2020",
          "meals": {}
        },
        "1/26/2020": {
          "url": "http://www.westfield.ma.edu/diningservices/foodpro.net/shortmenu.aspx?sName=Westfield+State+Dining+Services&locationNum=22&locationName=TJ+Bistro&naFlag=1&WeeksMenus=This+Week%27s+Menus&myaction=read&dtdate=1%2f26%2f2020",
          "meals": {}
        },
        "1/28/2020": {
          "url": "http://www.westfield.ma.edu/diningservices/foodpro.net/shortmenu.aspx?sName=Westfield+State+Dining+Services&locationNum=22&locationName=TJ+Bistro&naFlag=1&WeeksMenus=This+Week%27s+Menus&myaction=read&dtdate=1%2f28%2f2020",
          "meals": {}
        },
        "1/30/2020": {
          "url": "http://www.westfield.ma.edu/diningservices/foodpro.net/shortmenu.aspx?sName=Westfield+State+Dining+Services&locationNum=22&locationName=TJ+Bistro&naFlag=1&WeeksMenus=This+Week%27s+Menus&myaction=read&dtdate=1%2f30%2f2020",
          "meals": {}
        },
        "1/31/2020": {
          "url": "http://www.westfield.ma.edu/diningservices/foodpro.net/shortmenu.aspx?sName=Westfield+State+Dining+Services&locationNum=22&locationName=TJ+Bistro&naFlag=1&WeeksMenus=This+Week%27s+Menus&myaction=read&dtdate=1%2f31%2f2020",
          "meals": {}
        },
        "1/27/2020": {
          "url": "http://www.westfield.ma.edu/diningservices/foodpro.net/shortmenu.aspx?sName=Westfield+State+Dining+Services&locationNum=22&locationName=TJ+Bistro&naFlag=1&WeeksMenus=This+Week%27s+Menus&myaction=read&dtdate=1%2f27%2f2020",
          "meals": {}
        },
        "2/2/2020": {
          "url": "http://www.westfield.ma.edu/diningservices/foodpro.net/shortmenu.aspx?sName=Westfield+State+Dining+Services&locationNum=22&locationName=TJ+Bistro&naFlag=1&WeeksMenus=This+Week%27s+Menus&myaction=read&dtdate=2%2f2%2f2020",
          "meals": {}
        },
        "1/25/2020": {
          "url": "http://www.westfield.ma.edu/diningservices/foodpro.net/shortmenu.aspx?sName=Westfield+State+Dining+Services&locationNum=22&locationName=TJ+Bistro&naFlag=1&WeeksMenus=This+Week%27s+Menus&myaction=read&dtdate=1%2f25%2f2020",
          "meals": {}
        },
        "1/29/2020": {
          "url": "http://www.westfield.ma.edu/diningservices/foodpro.net/shortmenu.aspx?sName=Westfield+State+Dining+Services&locationNum=22&locationName=TJ+Bistro&naFlag=1&WeeksMenus=This+Week%27s+Menus&myaction=read&dtdate=1%2f29%2f2020",
          "meals": {}
        },
        "2/1/2020": {
          "url": "http://www.westfield.ma.edu/diningservices/foodpro.net/shortmenu.aspx?sName=Westfield+State+Dining+Services&locationNum=22&locationName=TJ+Bistro&naFlag=1&WeeksMenus=This+Week%27s+Menus&myaction=read&dtdate=2%2f1%2f2020",
          "meals": {}
        }
      }
    }
  },
  {
    "name": "Ely Harvest",
    "description": "Featuring gourmet sandwiches, wraps, salads and made-to-order smoothies and acai bowls. Protein-packed options are also available for eating on-the-go!",
    "url": "http://www.westfield.ma.edu/diningservices/foodpro.net/shortmenu.aspx?sName=Westfield+State+Dining+Services&locationNum=45&locationName=Ely+Harvest&naFlag=1",
    "menuCollection": {
      "dayMenus": {
        "1/26/2020": {
          "url": "http://www.westfield.ma.edu/diningservices/foodpro.net/shortmenu.aspx?sName=Westfield+State+Dining+Services&locationNum=45&locationName=Ely+Harvest&naFlag=1&WeeksMenus=This+Week%27s+Menus&myaction=read&dtdate=1%2f26%2f2020",
          "meals": {
            "Harvest in a Hurry": {
              "categories": {
                "Harvest in a Hurry": [
                  "Buffalo Chicken Salad with Blue CheeseÂ ",
                  "Buffalo Chicken Wrap with Blue CheeseÂ ",
                  "Butterscotch PuddingÂ ",
                  "Caesar SaladÂ ",
                  "Cantaloupe Fruit CupÂ ",
                  "Caprese SandwichÂ ",
                  "Chicken Caesar SaladÂ ",
                  "Chicken Caesar WrapÂ ",
                  "Chocolate PuddingÂ ",
                  "Garden SaladÂ ",
                  "Harvest Ham SandwichÂ ",
                  "Harvest MonteÂ ",
                  "Harvest Veggie Sandwich with HummusÂ ",
                  "Harvest WrapÂ ",
                  "Honeydew Fruit CupÂ ",
                  "Mixed Berry Fruit CupÂ ",
                  "Pineapple Fruit CupÂ ",
                  "Southwest SaladÂ ",
                  "Southwestern WrapÂ ",
                  "Turkey Club SandwichÂ ",
                  "Vanilla PuddingÂ ",
                  "Watermelon Fruit CupÂ "
                ]
              }
            },
            "Smoothies": {
              "categories": {}
            }
          }
        },
        "1/28/2020": {
          "url": "http://www.westfield.ma.edu/diningservices/foodpro.net/shortmenu.aspx?sName=Westfield+State+Dining+Services&locationNum=45&locationName=Ely+Harvest&naFlag=1&WeeksMenus=This+Week%27s+Menus&myaction=read&dtdate=1%2f28%2f2020",
          "meals": {
            "Harvest in a Hurry": {
              "categories": {
                "Harvest in a Hurry": [
                  "Buffalo Chicken Salad with Blue CheeseÂ ",
                  "Buffalo Chicken Wrap with Blue CheeseÂ ",
                  "Butterscotch PuddingÂ ",
                  "Caesar SaladÂ ",
                  "Cantaloupe Fruit CupÂ ",
                  "Caprese SandwichÂ ",
                  "Chicken Caesar SaladÂ ",
                  "Chicken Caesar WrapÂ ",
                  "Chocolate PuddingÂ ",
                  "Garden SaladÂ ",
                  "Harvest Ham SandwichÂ ",
                  "Harvest MonteÂ ",
                  "Harvest Veggie Sandwich with HummusÂ ",
                  "Harvest WrapÂ ",
                  "Honeydew Fruit CupÂ ",
                  "Mixed Berry Fruit CupÂ ",
                  "Pineapple Fruit CupÂ ",
                  "Southwest SaladÂ ",
                  "Southwestern WrapÂ ",
                  "Turkey Club SandwichÂ ",
                  "Vanilla PuddingÂ ",
                  "Watermelon Fruit CupÂ "
                ]
              }
            },
            "Smoothies": {
              "categories": {}
            }
          }
        },
        "1/30/2020": {
          "url": "http://www.westfield.ma.edu/diningservices/foodpro.net/shortmenu.aspx?sName=Westfield+State+Dining+Services&locationNum=45&locationName=Ely+Harvest&naFlag=1&WeeksMenus=This+Week%27s+Menus&myaction=read&dtdate=1%2f30%2f2020",
          "meals": {
            "Harvest in a Hurry": {
              "categories": {
                "Harvest in a Hurry": [
                  "Buffalo Chicken Salad with Blue CheeseÂ ",
                  "Buffalo Chicken Wrap with Blue CheeseÂ ",
                  "Butterscotch PuddingÂ ",
                  "Caesar SaladÂ ",
                  "Cantaloupe Fruit CupÂ ",
                  "Caprese SandwichÂ ",
                  "Chicken Caesar SaladÂ ",
                  "Chicken Caesar WrapÂ ",
                  "Chocolate PuddingÂ ",
                  "Garden SaladÂ ",
                  "Harvest Ham SandwichÂ ",
                  "Harvest MonteÂ ",
                  "Harvest Veggie Sandwich with HummusÂ ",
                  "Harvest WrapÂ ",
                  "Honeydew Fruit CupÂ ",
                  "Mixed Berry Fruit CupÂ ",
                  "Pineapple Fruit CupÂ ",
                  "Southwest SaladÂ ",
                  "Southwestern WrapÂ ",
                  "Turkey Club SandwichÂ ",
                  "Vanilla PuddingÂ ",
                  "Watermelon Fruit CupÂ "
                ]
              }
            },
            "Smoothies": {
              "categories": {}
            }
          }
        },
        "1/31/2020": {
          "url": "http://www.westfield.ma.edu/diningservices/foodpro.net/shortmenu.aspx?sName=Westfield+State+Dining+Services&locationNum=45&locationName=Ely+Harvest&naFlag=1&WeeksMenus=This+Week%27s+Menus&myaction=read&dtdate=1%2f31%2f2020",
          "meals": {
            "Harvest in a Hurry": {
              "categories": {
                "Harvest in a Hurry": [
                  "Buffalo Chicken Salad with Blue CheeseÂ ",
                  "Buffalo Chicken Wrap with Blue CheeseÂ ",
                  "Butterscotch PuddingÂ ",
                  "Caesar SaladÂ ",
                  "Cantaloupe Fruit CupÂ ",
                  "Caprese SandwichÂ ",
                  "Chicken Caesar SaladÂ ",
                  "Chicken Caesar WrapÂ ",
                  "Chocolate PuddingÂ ",
                  "Garden SaladÂ ",
                  "Harvest Ham SandwichÂ ",
                  "Harvest MonteÂ ",
                  "Harvest Veggie Sandwich with HummusÂ ",
                  "Harvest WrapÂ ",
                  "Honeydew Fruit CupÂ ",
                  "Mixed Berry Fruit CupÂ ",
                  "Pineapple Fruit CupÂ ",
                  "Southwest SaladÂ ",
                  "Southwestern WrapÂ ",
                  "Turkey Club SandwichÂ ",
                  "Vanilla PuddingÂ ",
                  "Watermelon Fruit CupÂ "
                ]
              }
            },
            "Smoothies": {
              "categories": {}
            }
          }
        },
        "1/27/2020": {
          "url": "http://www.westfield.ma.edu/diningservices/foodpro.net/shortmenu.aspx?sName=Westfield+State+Dining+Services&locationNum=45&locationName=Ely+Harvest&naFlag=1&WeeksMenus=This+Week%27s+Menus&myaction=read&dtdate=1%2f27%2f2020",
          "meals": {
            "Harvest in a Hurry": {
              "categories": {
                "Harvest in a Hurry": [
                  "Buffalo Chicken Salad with Blue CheeseÂ ",
                  "Buffalo Chicken Wrap with Blue CheeseÂ ",
                  "Butterscotch PuddingÂ ",
                  "Caesar SaladÂ ",
                  "Cantaloupe Fruit CupÂ ",
                  "Caprese SandwichÂ ",
                  "Chicken Caesar SaladÂ ",
                  "Chicken Caesar WrapÂ ",
                  "Chocolate PuddingÂ ",
                  "Garden SaladÂ ",
                  "Harvest Ham SandwichÂ ",
                  "Harvest MonteÂ ",
                  "Harvest Veggie Sandwich with HummusÂ ",
                  "Harvest WrapÂ ",
                  "Honeydew Fruit CupÂ ",
                  "Mixed Berry Fruit CupÂ ",
                  "Pineapple Fruit CupÂ ",
                  "Southwest SaladÂ ",
                  "Southwestern WrapÂ ",
                  "Turkey Club SandwichÂ ",
                  "Vanilla PuddingÂ ",
                  "Watermelon Fruit CupÂ "
                ]
              }
            },
            "Smoothies": {
              "categories": {}
            }
          }
        },
        "1/25/2020": {
          "url": "http://www.westfield.ma.edu/diningservices/foodpro.net/shortmenu.aspx?sName=Westfield+State+Dining+Services&locationNum=45&locationName=Ely+Harvest&naFlag=1&WeeksMenus=This+Week%27s+Menus&myaction=read&dtdate=1%2f25%2f2020",
          "meals": {
            "Harvest in a Hurry": {
              "categories": {
                "Harvest in a Hurry": [
                  "Buffalo Chicken Salad with Blue CheeseÂ ",
                  "Buffalo Chicken Wrap with Blue CheeseÂ ",
                  "Butterscotch PuddingÂ ",
                  "Caesar SaladÂ ",
                  "Cantaloupe Fruit CupÂ ",
                  "Caprese SandwichÂ ",
                  "Chicken Caesar SaladÂ ",
                  "Chicken Caesar WrapÂ ",
                  "Chocolate PuddingÂ ",
                  "Garden SaladÂ ",
                  "Harvest Ham SandwichÂ ",
                  "Harvest MonteÂ ",
                  "Harvest Veggie Sandwich with HummusÂ ",
                  "Harvest WrapÂ ",
                  "Honeydew Fruit CupÂ ",
                  "Mixed Berry Fruit CupÂ ",
                  "Pineapple Fruit CupÂ ",
                  "Southwest SaladÂ ",
                  "Southwestern WrapÂ ",
                  "Turkey Club SandwichÂ ",
                  "Vanilla PuddingÂ ",
                  "Watermelon Fruit CupÂ "
                ]
              }
            },
            "Smoothies": {
              "categories": {}
            }
          }
        },
        "1/29/2020": {
          "url": "http://www.westfield.ma.edu/diningservices/foodpro.net/shortmenu.aspx?sName=Westfield+State+Dining+Services&locationNum=45&locationName=Ely+Harvest&naFlag=1&WeeksMenus=This+Week%27s+Menus&myaction=read&dtdate=1%2f29%2f2020",
          "meals": {
            "Harvest in a Hurry": {
              "categories": {
                "Harvest in a Hurry": [
                  "Buffalo Chicken Salad with Blue CheeseÂ ",
                  "Buffalo Chicken Wrap with Blue CheeseÂ ",
                  "Butterscotch PuddingÂ ",
                  "Caesar SaladÂ ",
                  "Cantaloupe Fruit CupÂ ",
                  "Caprese SandwichÂ ",
                  "Chicken Caesar SaladÂ ",
                  "Chicken Caesar WrapÂ ",
                  "Chocolate PuddingÂ ",
                  "Garden SaladÂ ",
                  "Harvest Ham SandwichÂ ",
                  "Harvest MonteÂ ",
                  "Harvest Veggie Sandwich with HummusÂ ",
                  "Harvest WrapÂ ",
                  "Honeydew Fruit CupÂ ",
                  "Mixed Berry Fruit CupÂ ",
                  "Pineapple Fruit CupÂ ",
                  "Southwest SaladÂ ",
                  "Southwestern WrapÂ ",
                  "Turkey Club SandwichÂ ",
                  "Vanilla PuddingÂ ",
                  "Watermelon Fruit CupÂ "
                ]
              }
            },
            "Smoothies": {
              "categories": {}
            }
          }
        }
      }
    }
  },
  {
    "name": "Wilson Cafe ",
    "description": "Offering a variety of campus favorites including gourmet burgers, wraps, and grab & go options.",
    "url": "http://www.westfield.ma.edu/diningservices/foodpro.net/shortmenu.aspx?sName=Westfield+State+Dining+Services&locationNum=14&locationName=Wilson+Caf%c3%a9+&naFlag=1",
    "menuCollection": {
      "dayMenus": {
        "1/26/2020": {
          "url": "http://www.westfield.ma.edu/diningservices/foodpro.net/shortmenu.aspx?sName=Westfield+State+Dining+Services&locationNum=14&locationName=Wilson+Caf%c3%a9+&naFlag=1&WeeksMenus=This+Week%27s+Menus&myaction=read&dtdate=1%2f26%2f2020",
          "meals": {}
        },
        "1/28/2020": {
          "url": "http://www.westfield.ma.edu/diningservices/foodpro.net/shortmenu.aspx?sName=Westfield+State+Dining+Services&locationNum=14&locationName=Wilson+Caf%c3%a9+&naFlag=1&WeeksMenus=This+Week%27s+Menus&myaction=read&dtdate=1%2f28%2f2020",
          "meals": {}
        },
        "1/30/2020": {
          "url": "http://www.westfield.ma.edu/diningservices/foodpro.net/shortmenu.aspx?sName=Westfield+State+Dining+Services&locationNum=14&locationName=Wilson+Caf%c3%a9+&naFlag=1&WeeksMenus=This+Week%27s+Menus&myaction=read&dtdate=1%2f30%2f2020",
          "meals": {}
        },
        "1/31/2020": {
          "url": "http://www.westfield.ma.edu/diningservices/foodpro.net/shortmenu.aspx?sName=Westfield+State+Dining+Services&locationNum=14&locationName=Wilson+Caf%c3%a9+&naFlag=1&WeeksMenus=This+Week%27s+Menus&myaction=read&dtdate=1%2f31%2f2020",
          "meals": {}
        },
        "1/27/2020": {
          "url": "http://www.westfield.ma.edu/diningservices/foodpro.net/shortmenu.aspx?sName=Westfield+State+Dining+Services&locationNum=14&locationName=Wilson+Caf%c3%a9+&naFlag=1&WeeksMenus=This+Week%27s+Menus&myaction=read&dtdate=1%2f27%2f2020",
          "meals": {}
        },
        "1/25/2020": {
          "url": "http://www.westfield.ma.edu/diningservices/foodpro.net/shortmenu.aspx?sName=Westfield+State+Dining+Services&locationNum=14&locationName=Wilson+Caf%c3%a9+&naFlag=1&WeeksMenus=This+Week%27s+Menus&myaction=read&dtdate=1%2f25%2f2020",
          "meals": {}
        },
        "1/29/2020": {
          "url": "http://www.westfield.ma.edu/diningservices/foodpro.net/shortmenu.aspx?sName=Westfield+State+Dining+Services&locationNum=14&locationName=Wilson+Caf%c3%a9+&naFlag=1&WeeksMenus=This+Week%27s+Menus&myaction=read&dtdate=1%2f29%2f2020",
          "meals": {}
        }
      }
    }
  },
  {
    "name": "Garden Cafe ",
    "description": "Featuring fresh sandwiches, soups, and delicious coffee beverages.",
    "url": "http://www.westfield.ma.edu/diningservices/foodpro.net/shortmenu.aspx?sName=Westfield+State+Dining+Services&locationNum=51&locationName=Garden+Caf%c3%a9+&naFlag=1",
    "menuCollection": {
      "dayMenus": {
        "1/26/2020": {
          "url": "http://www.westfield.ma.edu/diningservices/foodpro.net/shortmenu.aspx?sName=Westfield+State+Dining+Services&locationNum=51&locationName=Garden+Caf%c3%a9+&naFlag=1&WeeksMenus=This+Week%27s+Menus&myaction=read&dtdate=1%2f26%2f2020",
          "meals": {}
        },
        "1/28/2020": {
          "url": "http://www.westfield.ma.edu/diningservices/foodpro.net/shortmenu.aspx?sName=Westfield+State+Dining+Services&locationNum=51&locationName=Garden+Caf%c3%a9+&naFlag=1&WeeksMenus=This+Week%27s+Menus&myaction=read&dtdate=1%2f28%2f2020",
          "meals": {}
        },
        "1/30/2020": {
          "url": "http://www.westfield.ma.edu/diningservices/foodpro.net/shortmenu.aspx?sName=Westfield+State+Dining+Services&locationNum=51&locationName=Garden+Caf%c3%a9+&naFlag=1&WeeksMenus=This+Week%27s+Menus&myaction=read&dtdate=1%2f30%2f2020",
          "meals": {}
        },
        "1/31/2020": {
          "url": "http://www.westfield.ma.edu/diningservices/foodpro.net/shortmenu.aspx?sName=Westfield+State+Dining+Services&locationNum=51&locationName=Garden+Caf%c3%a9+&naFlag=1&WeeksMenus=This+Week%27s+Menus&myaction=read&dtdate=1%2f31%2f2020",
          "meals": {}
        },
        "1/27/2020": {
          "url": "http://www.westfield.ma.edu/diningservices/foodpro.net/shortmenu.aspx?sName=Westfield+State+Dining+Services&locationNum=51&locationName=Garden+Caf%c3%a9+&naFlag=1&WeeksMenus=This+Week%27s+Menus&myaction=read&dtdate=1%2f27%2f2020",
          "meals": {}
        },
        "1/25/2020": {
          "url": "http://www.westfield.ma.edu/diningservices/foodpro.net/shortmenu.aspx?sName=Westfield+State+Dining+Services&locationNum=51&locationName=Garden+Caf%c3%a9+&naFlag=1&WeeksMenus=This+Week%27s+Menus&myaction=read&dtdate=1%2f25%2f2020",
          "meals": {}
        },
        "1/29/2020": {
          "url": "http://www.westfield.ma.edu/diningservices/foodpro.net/shortmenu.aspx?sName=Westfield+State+Dining+Services&locationNum=51&locationName=Garden+Caf%c3%a9+&naFlag=1&WeeksMenus=This+Week%27s+Menus&myaction=read&dtdate=1%2f29%2f2020",
          "meals": {}
        }
      }
    }
  }
]